<svg width="21" height="20" viewBox="0 0 21 20" fill="none" xmlns="http://www.w3.org/2000/svg">
<circle cx="10.5" cy="10" r="9" fill="#DA9F65" fill-opacity="0.75" stroke="#DA9F65" stroke-width="2"/>
</svg>
